2018-09-03T23:09:21 [nio-5033-exec-8] PacienteController                       : << [PacienteController.getCitas4Paciente]> TIMING: 15ms
2018-09-03T23:09:22 [nio-5033-exec-5] BaseController                           : << [MedicoController.getMedicosByCentroId]> TIMING: 3ms
2018-09-03T23:09:22 [nio-5033-exec-6] BaseController                           : << [MedicoController.getMedicosByCentroId]> TIMING: 2ms
2018-09-03T23:09:22 [nio-5033-exec-7] BaseController                           : << [MedicoController.getMedicosByCentroId]> TIMING: 12ms
2018-09-03T23:09:25 [nio-5033-exec-8] BaseController                           : << [CitaController.getCitasNextFree]> TIMING: 20ms
2018-09-03T23:09:27 [nio-5033-exec-2] BaseController                           : << [CitaController.getBlockCita]> TIMING: 26ms
2018-09-03T23:09:28 [nio-5033-exec-5] BaseController                           : << [CitaController.getReserveCita]> TIMING: 72ms
2018-09-03T23:09:29 [nio-5033-exec-6] PacienteController                       : << [PacienteController.getCitas4Paciente]> TIMING: 36ms
2018-09-03T23:09:29 [nio-5033-exec-7] PacienteController                       : << [PacienteController.getCitas4Paciente]> TIMING: 30ms
2018-09-03T23:09:33 [nio-5033-exec-9] PacienteController                       : << [PacienteController.getCitas4Paciente]> TIMING: 17ms
2018-09-03T23:09:33 [nio-5033-exec-1] BaseController                           : << [MedicoController.getMedicosByCentroId]> TIMING: 4ms
2018-09-03T23:09:33 [io-5033-exec-10] BaseController                           : << [MedicoController.getMedicosByCentroId]> TIMING: 7ms
2018-09-03T23:09:33 [nio-5033-exec-1] BaseController                           : << [MedicoController.getMedicosByCentroId]> TIMING: 2ms
2018-09-03T23:09:42 [nio-5033-exec-5] BaseController                           : << [CitaController.getCitasNextFree]> TIMING: 20ms
2018-09-03T23:09:46 [nio-5033-exec-7] BaseController                           : << [CitaController.getBlockCita]> TIMING: 111ms
2018-09-03T23:09:47 [nio-5033-exec-8] BaseController                           : << [CitaController.getReserveCita]> TIMING: 89ms
2018-09-03T23:09:48 [io-5033-exec-10] PacienteController                       : << [PacienteController.getCitas4Paciente]> TIMING: 26ms
2018-09-03T23:09:48 [nio-5033-exec-2] PacienteController                       : << [PacienteController.getCitas4Paciente]> TIMING: 32ms
2018-09-03T23:09:51 [nio-5033-exec-1] PacienteController                       : << [PacienteController.getCitas4Paciente]> TIMING: 43ms
2018-09-03T23:09:51 [nio-5033-exec-3] BaseController                           : << [MedicoController.getMedicosByCentroId]> TIMING: 2ms
2018-09-03T23:09:51 [nio-5033-exec-6] BaseController                           : << [MedicoController.getMedicosByCentroId]> TIMING: 6ms
2018-09-03T23:09:51 [nio-5033-exec-5] BaseController                           : << [MedicoController.getMedicosByCentroId]> TIMING: 13ms
2018-09-03T23:09:56 [nio-5033-exec-9] BaseController                           : << [CitaController.getCitasNextFree]> TIMING: 30ms
2018-09-03T23:09:57 [nio-5033-exec-2] BaseController                           : << [CitaController.getBlockCita]> TIMING: 79ms
2018-09-03T23:09:59 [nio-5033-exec-4] BaseController                           : << [CitaController.getReserveCita]> TIMING: 118ms
2018-09-03T23:09:59 [nio-5033-exec-3] PacienteController                       : << [PacienteController.getCitas4Paciente]> TIMING: 26ms
2018-09-03T23:10:00 [nio-5033-exec-5] PacienteController                       : << [PacienteController.getCitas4Paciente]> TIMING: 37ms
