[{
  "jsonClass": "DailyAppointmentsTemplate",
  "createdAt": "2018-08-27T08:22:07.508+0000",
  "updatedAt": "2018-08-27T08:22:07.508+0000",
  "nombre": "Plantilla Diaria Normalizada",
  "slots": [{
      "jsonClass": "Cita",
      "createdAt": "2018-08-27T08:22:07.508+0000",
      "updatedAt": "2018-08-27T08:22:07.508+0000",
      "id": 1001,
      "referencia": "12345678R",
      "fecha": "2018-08-27",
      "huecoId": 1000,
      "huecoDuracion": 60,
      "estado": "LIBRE",
      "pacienteLocalizador": "",
      "medicoIdentifier": "MID:1000001:12345678R",
      "centroIdentifier": "1000001",
      "centroName": "Particulares",
      "huecoIdentifier": "1000",
      "medicoReference": "12345678R",
      "tipo": "-NORMAL-",
      "recurso": "",
      "vip": ""
    },
    {
      "jsonClass": "Cita",
      "createdAt": "2018-08-27T08:22:07.606+0000",
      "updatedAt": "2018-08-27T08:22:07.606+0000",
      "id": 1002,
      "referencia": "12345678R",
      "fecha": "2018-08-27",
      "huecoId": 1100,
      "huecoDuracion": 15,
      "estado": "LIBRE",
      "pacienteLocalizador": "",
      "medicoIdentifier": "MID:1000001:12345678R",
      "centroIdentifier": "1000001",
      "centroName": "Particulares",
      "huecoIdentifier": "1100",
      "medicoReference": "12345678R",
      "tipo": "-NORMAL-",
      "recurso": "",
      "vip": ""
    }
  ]
}, {
  "jsonClass": "DailyAppointmentsTemplate",
  "createdAt": "2018-08-27T08:22:07.508+0000",
  "updatedAt": "2018-08-27T08:22:07.508+0000",
  "nombre": "Plantilla REM Mañanas",
  "slots": [{
      "jsonClass": "Cita",
      "createdAt": "2018-08-27T08:22:07.508+0000",
      "updatedAt": "2018-08-27T08:22:07.508+0000",
      "id": 1001,
      "referencia": "12345678R",
      "fecha": "2018-08-27",
      "huecoId": 900,
      "huecoDuracion": 30,
      "estado": "LIBRE",
      "pacienteLocalizador": "",
      "medicoIdentifier": "MID:1000001:12345678R",
      "centroIdentifier": "1000001",
      "centroName": "Particulares",
      "huecoIdentifier": "0900",
      "medicoReference": "12345678R",
      "tipo": "-VIP-",
      "recurso": "",
      "vip": "Sanitas"
    },
    {
      "jsonClass": "Cita",
      "createdAt": "2018-08-27T08:22:07.606+0000",
      "updatedAt": "2018-08-27T08:22:07.606+0000",
      "id": 1002,
      "referencia": "12345678R",
      "fecha": "2018-08-27",
      "huecoId": 930,
      "huecoDuracion": 30,
      "estado": "LIBRE",
      "pacienteLocalizador": "",
      "medicoIdentifier": "MID:1000001:12345678R",
      "centroIdentifier": "1000001",
      "centroName": "Particulares",
      "huecoIdentifier": "0930",
      "medicoReference": "12345678R",
      "tipo": "-VIP-",
      "recurso": "",
      "vip": "Sanitas"
    },
    {
      "jsonClass": "Cita",
      "createdAt": "2018-08-27T08:22:07.613+0000",
      "updatedAt": "2018-08-27T08:22:07.613+0000",
      "id": 1003,
      "referencia": "12345678R",
      "fecha": "2018-08-27",
      "huecoId": 1000,
      "huecoDuracion": 30,
      "estado": "LIBRE",
      "pacienteLocalizador": "",
      "medicoIdentifier": "MID:1000001:12345678R",
      "centroIdentifier": "1000001",
      "centroName": "Particulares",
      "huecoIdentifier": "0930",
      "medicoReference": "12345678R",
      "tipo": "-VIP-",
      "recurso": "",
      "vip": "Adeslas"
    },
    {
      "jsonClass": "Cita",
      "createdAt": "2018-08-27T08:22:07.619+0000",
      "updatedAt": "2018-08-27T08:22:07.619+0000",
      "id": 1004,
      "referencia": "12345678R",
      "fecha": "2018-08-27",
      "huecoId": 1030,
      "huecoDuracion": 30,
      "estado": "LIBRE",
      "pacienteLocalizador": "",
      "medicoIdentifier": "MID:1000001:12345678R",
      "centroIdentifier": "1000001",
      "centroName": "Particulares",
      "huecoIdentifier": "0945",
      "medicoReference": "12345678R",
      "tipo": "-VIP-",
      "recurso": "",
      "vip": "Adeslas"
    },
    {
      "jsonClass": "Cita",
      "createdAt": "2018-08-27T08:22:07.630+0000",
      "updatedAt": "2018-08-27T08:22:07.630+0000",
      "id": 1005,
      "referencia": "12345678R",
      "fecha": "2018-08-27",
      "huecoId": 1000,
      "huecoDuracion": 15,
      "estado": "LIBRE",
      "pacienteLocalizador": "",
      "medicoIdentifier": "MID:1000001:12345678R",
      "centroIdentifier": "1000001",
      "centroName": "Particulares",
      "huecoIdentifier": "1000",
      "medicoReference": "12345678R",
      "tipo": "-REM-",
      "recurso": "",
      "vip": ""
    },
    {
      "jsonClass": "Cita",
      "createdAt": "2018-08-27T08:22:07.640+0000",
      "updatedAt": "2018-08-27T08:22:07.640+0000",
      "id": 1006,
      "referencia": "12345678R",
      "fecha": "2018-08-27",
      "huecoId": 1015,
      "huecoDuracion": 15,
      "estado": "LIBRE",
      "pacienteLocalizador": "",
      "medicoIdentifier": "MID:1000001:12345678R",
      "centroIdentifier": "1000001",
      "centroName": "Particulares",
      "huecoIdentifier": "1015",
      "medicoReference": "12345678R",
      "tipo": "-REM-",
      "recurso": "",
      "vip": ""
    },
    {
      "jsonClass": "Cita",
      "createdAt": "2018-08-27T08:22:07.640+0000",
      "updatedAt": "2018-08-27T08:22:07.640+0000",
      "id": 1006,
      "referencia": "12345678R",
      "fecha": "2018-08-27",
      "huecoId": 1030,
      "huecoDuracion": 15,
      "estado": "LIBRE",
      "pacienteLocalizador": "",
      "medicoIdentifier": "MID:1000001:12345678R",
      "centroIdentifier": "1000001",
      "centroName": "Particulares",
      "huecoIdentifier": "1015",
      "medicoReference": "12345678R",
      "tipo": "-REM-",
      "recurso": "",
      "vip": ""
    },
    {
      "jsonClass": "Cita",
      "createdAt": "2018-08-27T08:22:07.640+0000",
      "updatedAt": "2018-08-27T08:22:07.640+0000",
      "id": 1006,
      "referencia": "12345678R",
      "fecha": "2018-08-27",
      "huecoId": 1045,
      "huecoDuracion": 15,
      "estado": "LIBRE",
      "pacienteLocalizador": "",
      "medicoIdentifier": "MID:1000001:12345678R",
      "centroIdentifier": "1000001",
      "centroName": "Particulares",
      "huecoIdentifier": "1015",
      "medicoReference": "12345678R",
      "tipo": "-REM-",
      "recurso": "",
      "vip": ""
    },
    {
      "jsonClass": "Cita",
      "createdAt": "2018-08-27T08:22:07.640+0000",
      "updatedAt": "2018-08-27T08:22:07.640+0000",
      "id": 1006,
      "referencia": "12345678R",
      "fecha": "2018-08-27",
      "huecoId": 1100,
      "huecoDuracion": 15,
      "estado": "LIBRE",
      "pacienteLocalizador": "",
      "medicoIdentifier": "MID:1000001:12345678R",
      "centroIdentifier": "1000001",
      "centroName": "Particulares",
      "huecoIdentifier": "1015",
      "medicoReference": "12345678R",
      "tipo": "-NORMAL-",
      "recurso": "",
      "vip": ""
    }
  ]
}, {
  "jsonClass": "DailyAppointmentsTemplate",
  "createdAt": "2018-08-27T08:22:07.508+0000",
  "updatedAt": "2018-08-27T08:22:07.508+0000",
  "nombre": "Plantilla Reducida",
  "slots": [{
      "jsonClass": "Cita",
      "createdAt": "2018-08-27T08:22:07.508+0000",
      "updatedAt": "2018-08-27T08:22:07.508+0000",
      "id": 1001,
      "referencia": "12345678R",
      "fecha": "2018-08-27",
      "huecoId": 900,
      "huecoDuracion": 60,
      "estado": "LIBRE",
      "pacienteLocalizador": "",
      "medicoIdentifier": "MID:1000001:12345678R",
      "centroIdentifier": "1000001",
      "centroName": "Particulares",
      "huecoIdentifier": "0900",
      "medicoReference": "12345678R",
      "tipo": "-EXTENDIDA-",
      "recurso": "",
      "vip": ""
    },
    {
      "jsonClass": "Cita",
      "createdAt": "2018-08-27T08:22:07.606+0000",
      "updatedAt": "2018-08-27T08:22:07.606+0000",
      "id": 1002,
      "referencia": "12345678R",
      "fecha": "2018-08-27",
      "huecoId": 1000,
      "huecoDuracion": 60,
      "estado": "LIBRE",
      "pacienteLocalizador": "",
      "medicoIdentifier": "MID:1000001:12345678R",
      "centroIdentifier": "1000001",
      "centroName": "Particulares",
      "huecoIdentifier": "1000",
      "medicoReference": "12345678R",
      "tipo": "-EXTENDIDA-",
      "recurso": "",
      "vip": ""
    },
    {
      "jsonClass": "Cita",
      "createdAt": "2018-08-27T08:22:07.613+0000",
      "updatedAt": "2018-08-27T08:22:07.613+0000",
      "id": 1003,
      "referencia": "12345678R",
      "fecha": "2018-08-27",
      "huecoId": 1100,
      "huecoDuracion": 60,
      "estado": "LIBRE",
      "pacienteLocalizador": "",
      "medicoIdentifier": "MID:1000001:12345678R",
      "centroIdentifier": "1000001",
      "centroName": "Particulares",
      "huecoIdentifier": "1100",
      "medicoReference": "12345678R",
      "tipo": "-NORMAL-",
      "recurso": "",
      "vip": ""
    },
    {
      "jsonClass": "Cita",
      "createdAt": "2018-08-27T08:22:07.619+0000",
      "updatedAt": "2018-08-27T08:22:07.619+0000",
      "id": 1004,
      "referencia": "12345678R",
      "fecha": "2018-08-27",
      "huecoId": 1200,
      "huecoDuracion": 60,
      "estado": "LIBRE",
      "pacienteLocalizador": "",
      "medicoIdentifier": "MID:1000001:12345678R",
      "centroIdentifier": "1000001",
      "centroName": "Particulares",
      "huecoIdentifier": "1200",
      "medicoReference": "12345678R",
      "tipo": "-NORMAL-",
      "recurso": "",
      "vip": "",
      "tipo": "-NORMAL-",
      "recurso": "",
      "vip": ""
    }
  ]
}]
