<?xml version="1.0" encoding="iso-8859-1"?>
<!-- Generator: Adobe Illustrator 16.0.0, SVG Export Plug-In . SVG Version: 6.00 Build 0)  -->
<!DOCTYPE svg PUBLIC "-//W3C//DTD SVG 1.1//EN" "http://www.w3.org/Graphics/SVG/1.1/DTD/svg11.dtd">
<svg version="1.1" id="Capa_1" xmlns="http://www.w3.org/2000/svg" xmlns:xlink="http://www.w3.org/1999/xlink" x="0px" y="0px"
	 width="604.117px" height="604.117px" viewBox="0 0 604.117 604.117" style="enable-background:new 0 0 604.117 604.117;"
	 xml:space="preserve">
<g>
	<path d="M230.94,76.268c-13.158-25.092-3.672-56.609,22.032-70.073c25.398-13.465,56.916-4.284,70.38,20.808
		s3.672,56.61-21.726,70.074C275.923,110.846,244.405,101.36,230.94,76.268z M470.232,264.764c0-0.306-70.074-123.012-97.92-171.972
		c-6.12-11.016-20.196-14.994-31.212-8.874c-28.764,15.605-78.336,42.534-81.396,44.063c-5.814,3.061-11.016,8.263-11.628,15.301
		l-8.262,77.418c-1.53,14.688-11.628,27.233-26.01,31.824l-70.992,22.338c-9.792,3.06-15.3,13.464-12.24,23.256
		c2.448,7.955,9.792,12.852,17.442,13.157v284.58c0,4.284,3.366,7.65,7.65,7.65c4.284,0,7.65-3.366,7.65-7.65V307.604l71.604-22.644
		c22.032-7.038,37.944-26.316,40.698-49.572l5.509-50.184l91.188,156.978l-43.146,61.812
		c-11.935,17.136-18.666,37.638-18.666,58.445l-0.918,113.526c0,15.3,12.239,28.151,27.846,28.151h0.306
		c15.301,0,27.847-12.239,27.847-27.846l0.918-106.182c0-14.382,4.59-28.458,13.157-40.393
		c22.95-32.436,70.687-99.756,89.965-128.52C477.883,288.02,473.599,270.884,470.232,264.764z"/>
</g>
<g>
</g>
<g>
</g>
<g>
</g>
<g>
</g>
<g>
</g>
<g>
</g>
<g>
</g>
<g>
</g>
<g>
</g>
<g>
</g>
<g>
</g>
<g>
</g>
<g>
</g>
<g>
</g>
<g>
</g>
</svg>
