[
  {
    "jsonClass": "Limitador",
    "tipo": "-BLOCKING-",
    "icon": "/assets/icons/child-solid.svg",
    "titulo": "NIÑOS < 10",
    "descripcion": "Bloquear acceso a cita a niños < 10 años.",
    "valorLimite": 10,
    "valorReferencia": "",
    "periodo": "-DAY-",
    "activeState": false
  },
  {
    "jsonClass": "Limitador",
    "tipo": "-BLOCKING-",
    "icon": "/assets/icons/child-solid.svg",
    "titulo": "NIÑOS < 16",
    "descripcion": "Bloquear acceso a cita a niños < 16 años.",
    "valorLimite": 16,
    "valorReferencia": "",
    "periodo": "-DAY-",
    "activeState": false
  },
  {
    "jsonClass": "Limitador",
    "tipo": "-BLOCKING-",
    "icon": "/assets/icons/old-solid.svg",
    "titulo": "MAYORES > 60",
    "descripcion": "Bloquear acceso a cita a mayores 60 años.",
    "valorLimite": 60,
    "valorReferencia": "",
    "periodo": "-DAY-",
    "activeState": false
  },
  {
    "jsonClass": "Limitador",
    "tipo": "-PERCENT-",
    "icon": "/assets/icons/medrt-brands.svg",
    "titulo": "ASEGURADORA",
    "descripcion": "Limitar porcentaje ocupado por pacientes de la aseguradora.",
    "valorLimite": 30,
    "valorReferencia": "",
    "periodo": "-DAY-",
    "activeState": false
  }
]