[{
    "jsonClass": "Cita",
    "createdAt": "2018-09-03T19:29:11.773+0000",
    "updatedAt": "2018-09-03T23:09:28.770+0000",
    "id": 1001,
    "referencia": "942 314 112",
    "fecha": "2018-09-05",
    "huecoId": 900,
    "huecoDuracion": 30,
    "estado": "RESERVADA",
    "pacienteLocalizador": "123456789-Web034",
    "medicoIdentifier": "MID:1000003:942 314 112",
    "centroIdentifier": "1000003",
    "centroName": "Grupo Empresarial Igualatorio Cantabria",
    "medicoReference": "942 314 112",
    "huecoIdentifier": "0900"
  },
  {
    "jsonClass": "Cita",
    "createdAt": "2018-09-03T19:29:11.782+0000",
    "updatedAt": "2018-09-03T20:16:50.308+0000",
    "id": 1002,
    "referencia": "942 314 112",
    "fecha": "2018-09-05",
    "huecoId": 930,
    "huecoDuracion": 30,
    "estado": "RESERVADA",
    "pacienteLocalizador": "13739949W-Web040",
    "medicoIdentifier": "MID:1000003:942 314 112",
    "centroIdentifier": "1000003",
    "centroName": "Grupo Empresarial Igualatorio Cantabria",
    "medicoReference": "942 314 112",
    "huecoIdentifier": "0930"
  },
  {
    "jsonClass": "Cita",
    "createdAt": "2018-09-03T19:29:11.785+0000",
    "updatedAt": "2018-09-03T19:29:11.785+0000",
    "id": 1003,
    "referencia": "942 314 112",
    "fecha": "2018-09-05",
    "huecoId": 1000,
    "huecoDuracion": 30,
    "estado": "LIBRE",
    "pacienteLocalizador": "",
    "medicoIdentifier": "MID:1000003:942 314 112",
    "centroIdentifier": "1000003",
    "centroName": "Grupo Empresarial Igualatorio Cantabria",
    "medicoReference": "942 314 112",
    "huecoIdentifier": "1000"
  },
  {
    "jsonClass": "Cita",
    "createdAt": "2018-09-03T19:29:11.788+0000",
    "updatedAt": "2018-09-03T19:29:11.788+0000",
    "id": 1004,
    "referencia": "942 314 112",
    "fecha": "2018-09-05",
    "huecoId": 1030,
    "huecoDuracion": 30,
    "estado": "LIBRE",
    "pacienteLocalizador": "",
    "medicoIdentifier": "MID:1000003:942 314 112",
    "centroIdentifier": "1000003",
    "centroName": "Grupo Empresarial Igualatorio Cantabria",
    "medicoReference": "942 314 112",
    "huecoIdentifier": "1030"
  },
  {
    "jsonClass": "Cita",
    "createdAt": "2018-09-03T19:29:11.911+0000",
    "updatedAt": "2018-09-03T19:29:11.911+0000",
    "id": 1007,
    "referencia": "942 314 112",
    "fecha": "2018-09-06",
    "huecoId": 900,
    "huecoDuracion": 30,
    "estado": "LIBRE",
    "pacienteLocalizador": "",
    "medicoIdentifier": "MID:1000003:942 314 112",
    "centroIdentifier": "1000003",
    "centroName": "Grupo Empresarial Igualatorio Cantabria",
    "medicoReference": "942 314 112",
    "huecoIdentifier": "0900"
  },
  {
    "jsonClass": "Cita",
    "createdAt": "2018-09-03T19:29:11.913+0000",
    "updatedAt": "2018-09-03T19:29:11.913+0000",
    "id": 1008,
    "referencia": "942 314 112",
    "fecha": "2018-09-06",
    "huecoId": 930,
    "huecoDuracion": 30,
    "estado": "LIBRE",
    "pacienteLocalizador": "",
    "medicoIdentifier": "MID:1000003:942 314 112",
    "centroIdentifier": "1000003",
    "centroName": "Grupo Empresarial Igualatorio Cantabria",
    "medicoReference": "942 314 112",
    "huecoIdentifier": "0930"
  },
  {
    "jsonClass": "Cita",
    "createdAt": "2018-09-03T19:29:11.991+0000",
    "updatedAt": "2018-09-03T19:29:11.991+0000",
    "id": 1013,
    "referencia": "942 314 112",
    "fecha": "2018-09-07",
    "huecoId": 900,
    "huecoDuracion": 30,
    "estado": "LIBRE",
    "pacienteLocalizador": "",
    "medicoIdentifier": "MID:1000003:942 314 112",
    "centroIdentifier": "1000003",
    "centroName": "Grupo Empresarial Igualatorio Cantabria",
    "medicoReference": "942 314 112",
    "huecoIdentifier": "0900"
  },
  {
    "jsonClass": "Cita",
    "createdAt": "2018-09-03T19:29:11.993+0000",
    "updatedAt": "2018-09-03T19:29:11.993+0000",
    "id": 1014,
    "referencia": "942 314 112",
    "fecha": "2018-09-07",
    "huecoId": 930,
    "huecoDuracion": 30,
    "estado": "LIBRE",
    "pacienteLocalizador": "",
    "medicoIdentifier": "MID:1000003:942 314 112",
    "centroIdentifier": "1000003",
    "centroName": "Grupo Empresarial Igualatorio Cantabria",
    "medicoReference": "942 314 112",
    "huecoIdentifier": "0930"
  }
]
