[{
    "jsonClass": "Cita",
    "createdAt": "2018-08-27T08:22:07.508+0000",
    "updatedAt": "2018-08-27T08:22:07.508+0000",
    "id": 1001,
    "referencia": "12345678R",
    "fecha": "2018-08-27",
    "huecoId": 900,
    "huecoDuracion": 15,
    "estado": "RESERVADA",
    "pacienteLocalizador": "PAT:12345678-E",
    "medicoIdentifier": "MID:1000001:12345678R",
    "centroIdentifier": "1000001",
    "centroName": "Particulares",
    "huecoIdentifier": "0900",
    "medicoReference": "12345678R"
  },
  {
    "jsonClass": "Cita",
    "createdAt": "2018-08-27T08:22:07.606+0000",
    "updatedAt": "2018-08-27T08:22:07.606+0000",
    "id": 1002,
    "referencia": "12345678R",
    "fecha": "2018-08-27",
    "huecoId": 915,
    "huecoDuracion": 15,
    "estado": "BLOQUEADA",
    "pacienteLocalizador": "Identificador Bloqueo",
    "medicoIdentifier": "MID:1000001:12345678R",
    "centroIdentifier": "1000001",
    "centroName": "Particulares",
    "huecoIdentifier": "0915",
    "medicoReference": "12345678R"
  },
  {
    "jsonClass": "Cita",
    "createdAt": "2018-08-27T08:22:07.613+0000",
    "updatedAt": "2018-08-27T08:22:07.613+0000",
    "id": 1003,
    "referencia": "12345678R",
    "fecha": "2018-08-27",
    "huecoId": 930,
    "huecoDuracion": 15,
    "estado": "LIBRE",
    "pacienteLocalizador": "",
    "medicoIdentifier": "MID:1000001:12345678R",
    "centroIdentifier": "1000001",
    "centroName": "Particulares",
    "huecoIdentifier": "0930",
    "medicoReference": "12345678R"
  },
  {
    "jsonClass": "Cita",
    "createdAt": "2018-08-27T08:22:07.619+0000",
    "updatedAt": "2018-08-27T08:22:07.619+0000",
    "id": 1004,
    "referencia": "12345678R",
    "fecha": "2018-08-27",
    "huecoId": 945,
    "huecoDuracion": 15,
    "estado": "LIBRE",
    "pacienteLocalizador": "",
    "medicoIdentifier": "MID:1000001:12345678R",
    "centroIdentifier": "1000001",
    "centroName": "Particulares",
    "huecoIdentifier": "0945",
    "medicoReference": "12345678R"
  },
  {
    "jsonClass": "Cita",
    "createdAt": "2018-08-27T08:22:07.630+0000",
    "updatedAt": "2018-08-27T08:22:07.630+0000",
    "id": 1005,
    "referencia": "12345678R",
    "fecha": "2018-08-27",
    "huecoId": 1000,
    "huecoDuracion": 15,
    "estado": "LIBRE",
    "pacienteLocalizador": "",
    "medicoIdentifier": "MID:1000001:12345678R",
    "centroIdentifier": "1000001",
    "centroName": "Particulares",
    "huecoIdentifier": "1000",
    "medicoReference": "12345678R"
  },
  {
    "jsonClass": "Cita",
    "createdAt": "2018-08-27T08:22:07.640+0000",
    "updatedAt": "2018-08-27T08:22:07.640+0000",
    "id": 1006,
    "referencia": "12345678R",
    "fecha": "2018-08-27",
    "huecoId": 1015,
    "huecoDuracion": 15,
    "estado": "LIBRE",
    "pacienteLocalizador": "",
    "medicoIdentifier": "MID:1000001:12345678R",
    "centroIdentifier": "1000001",
    "centroName": "Particulares",
    "huecoIdentifier": "1015",
    "medicoReference": "12345678R"
  },
  {
    "jsonClass": "Cita",
    "createdAt": "2018-08-27T08:22:07.654+0000",
    "updatedAt": "2018-08-27T08:22:07.654+0000",
    "id": 1007,
    "referencia": "12345678R",
    "fecha": "2018-08-27",
    "huecoId": 1030,
    "huecoDuracion": 15,
    "estado": "LIBRE",
    "pacienteLocalizador": "",
    "medicoIdentifier": "MID:1000001:12345678R",
    "centroIdentifier": "1000001",
    "centroName": "Particulares",
    "huecoIdentifier": "1030",
    "medicoReference": "12345678R"
  },
  {
    "jsonClass": "Cita",
    "createdAt": "2018-08-27T08:22:07.665+0000",
    "updatedAt": "2018-08-27T08:22:07.665+0000",
    "id": 1008,
    "referencia": "12345678R",
    "fecha": "2018-08-27",
    "huecoId": 1045,
    "huecoDuracion": 15,
    "estado": "LIBRE",
    "pacienteLocalizador": "",
    "medicoIdentifier": "MID:1000001:12345678R",
    "centroIdentifier": "1000001",
    "centroName": "Particulares",
    "huecoIdentifier": "1045",
    "medicoReference": "12345678R"
  },
  {
    "jsonClass": "Cita",
    "createdAt": "2018-08-27T08:22:07.671+0000",
    "updatedAt": "2018-08-27T08:22:07.671+0000",
    "id": 1009,
    "referencia": "12345678R",
    "fecha": "2018-08-27",
    "huecoId": 1100,
    "huecoDuracion": 15,
    "estado": "LIBRE",
    "pacienteLocalizador": "",
    "medicoIdentifier": "MID:1000001:12345678R",
    "centroIdentifier": "1000001",
    "centroName": "Particulares",
    "huecoIdentifier": "1100",
    "medicoReference": "12345678R"
  },
  {
    "jsonClass": "Cita",
    "createdAt": "2018-08-27T08:22:07.683+0000",
    "updatedAt": "2018-08-27T08:22:07.683+0000",
    "id": 1010,
    "referencia": "12345678R",
    "fecha": "2018-08-27",
    "huecoId": 1115,
    "huecoDuracion": 15,
    "estado": "LIBRE",
    "pacienteLocalizador": "",
    "medicoIdentifier": "MID:1000001:12345678R",
    "centroIdentifier": "1000001",
    "centroName": "Particulares",
    "huecoIdentifier": "1115",
    "medicoReference": "12345678R"
  },
  {
    "jsonClass": "Cita",
    "createdAt": "2018-08-27T08:22:07.689+0000",
    "updatedAt": "2018-08-27T08:22:07.689+0000",
    "id": 1011,
    "referencia": "12345678R",
    "fecha": "2018-08-27",
    "huecoId": 1130,
    "huecoDuracion": 15,
    "estado": "LIBRE",
    "pacienteLocalizador": "",
    "medicoIdentifier": "MID:1000001:12345678R",
    "centroIdentifier": "1000001",
    "centroName": "Particulares",
    "huecoIdentifier": "1130",
    "medicoReference": "12345678R"
  },
  {
    "jsonClass": "Cita",
    "createdAt": "2018-08-27T08:22:07.706+0000",
    "updatedAt": "2018-08-27T08:22:07.706+0000",
    "id": 1012,
    "referencia": "12345678R",
    "fecha": "2018-08-27",
    "huecoId": 1145,
    "huecoDuracion": 15,
    "estado": "LIBRE",
    "pacienteLocalizador": "",
    "medicoIdentifier": "MID:1000001:12345678R",
    "centroIdentifier": "1000001",
    "centroName": "Particulares",
    "huecoIdentifier": "1145",
    "medicoReference": "12345678R"
  },
  {
    "jsonClass": "Cita",
    "createdAt": "2018-08-27T08:22:07.782+0000",
    "updatedAt": "2018-08-27T08:22:07.782+0000",
    "id": 1013,
    "referencia": "12345678R",
    "fecha": "2018-08-28",
    "huecoId": 900,
    "huecoDuracion": 15,
    "estado": "LIBRE",
    "pacienteLocalizador": "",
    "medicoIdentifier": "MID:1000001:12345678R",
    "centroIdentifier": "1000001",
    "centroName": "Particulares",
    "huecoIdentifier": "0900",
    "medicoReference": "12345678R"
  },
  {
    "jsonClass": "Cita",
    "createdAt": "2018-08-27T08:22:07.788+0000",
    "updatedAt": "2018-08-27T08:22:07.788+0000",
    "id": 1014,
    "referencia": "12345678R",
    "fecha": "2018-08-28",
    "huecoId": 915,
    "huecoDuracion": 15,
    "estado": "LIBRE",
    "pacienteLocalizador": "",
    "medicoIdentifier": "MID:1000001:12345678R",
    "centroIdentifier": "1000001",
    "centroName": "Particulares",
    "huecoIdentifier": "0915",
    "medicoReference": "12345678R"
  },
  {
    "jsonClass": "Cita",
    "createdAt": "2018-08-27T08:22:07.794+0000",
    "updatedAt": "2018-08-27T08:22:07.794+0000",
    "id": 1015,
    "referencia": "12345678R",
    "fecha": "2018-08-28",
    "huecoId": 930,
    "huecoDuracion": 15,
    "estado": "LIBRE",
    "pacienteLocalizador": "",
    "medicoIdentifier": "MID:1000001:12345678R",
    "centroIdentifier": "1000001",
    "centroName": "Particulares",
    "huecoIdentifier": "0930",
    "medicoReference": "12345678R"
  },
  {
    "jsonClass": "Cita",
    "createdAt": "2018-08-27T08:22:07.801+0000",
    "updatedAt": "2018-08-27T08:22:07.801+0000",
    "id": 1016,
    "referencia": "12345678R",
    "fecha": "2018-08-28",
    "huecoId": 945,
    "huecoDuracion": 15,
    "estado": "LIBRE",
    "pacienteLocalizador": "",
    "medicoIdentifier": "MID:1000001:12345678R",
    "centroIdentifier": "1000001",
    "centroName": "Particulares",
    "huecoIdentifier": "0945",
    "medicoReference": "12345678R"
  },
  {
    "jsonClass": "Cita",
    "createdAt": "2018-08-27T08:22:07.808+0000",
    "updatedAt": "2018-08-27T08:22:07.808+0000",
    "id": 1017,
    "referencia": "12345678R",
    "fecha": "2018-08-28",
    "huecoId": 1000,
    "huecoDuracion": 15,
    "estado": "LIBRE",
    "pacienteLocalizador": "",
    "medicoIdentifier": "MID:1000001:12345678R",
    "centroIdentifier": "1000001",
    "centroName": "Particulares",
    "huecoIdentifier": "1000",
    "medicoReference": "12345678R"
  },
  {
    "jsonClass": "Cita",
    "createdAt": "2018-08-27T08:22:07.813+0000",
    "updatedAt": "2018-08-27T08:22:07.813+0000",
    "id": 1018,
    "referencia": "12345678R",
    "fecha": "2018-08-28",
    "huecoId": 1015,
    "huecoDuracion": 15,
    "estado": "LIBRE",
    "pacienteLocalizador": "",
    "medicoIdentifier": "MID:1000001:12345678R",
    "centroIdentifier": "1000001",
    "centroName": "Particulares",
    "huecoIdentifier": "1015",
    "medicoReference": "12345678R"
  },
  {
    "jsonClass": "Cita",
    "createdAt": "2018-08-27T08:22:07.818+0000",
    "updatedAt": "2018-08-27T08:22:07.818+0000",
    "id": 1019,
    "referencia": "12345678R",
    "fecha": "2018-08-28",
    "huecoId": 1030,
    "huecoDuracion": 15,
    "estado": "LIBRE",
    "pacienteLocalizador": "",
    "medicoIdentifier": "MID:1000001:12345678R",
    "centroIdentifier": "1000001",
    "centroName": "Particulares",
    "huecoIdentifier": "1030",
    "medicoReference": "12345678R"
  },
  {
    "jsonClass": "Cita",
    "createdAt": "2018-08-27T08:22:07.838+0000",
    "updatedAt": "2018-08-27T08:22:07.838+0000",
    "id": 1020,
    "referencia": "12345678R",
    "fecha": "2018-08-28",
    "huecoId": 1045,
    "huecoDuracion": 15,
    "estado": "LIBRE",
    "pacienteLocalizador": "",
    "medicoIdentifier": "MID:1000001:12345678R",
    "centroIdentifier": "1000001",
    "centroName": "Particulares",
    "huecoIdentifier": "1045",
    "medicoReference": "12345678R"
  },
  {
    "jsonClass": "Cita",
    "createdAt": "2018-08-27T08:22:07.847+0000",
    "updatedAt": "2018-08-27T08:22:07.847+0000",
    "id": 1021,
    "referencia": "12345678R",
    "fecha": "2018-08-28",
    "huecoId": 1100,
    "huecoDuracion": 15,
    "estado": "LIBRE",
    "pacienteLocalizador": "",
    "medicoIdentifier": "MID:1000001:12345678R",
    "centroIdentifier": "1000001",
    "centroName": "Particulares",
    "huecoIdentifier": "1100",
    "medicoReference": "12345678R"
  },
  {
    "jsonClass": "Cita",
    "createdAt": "2018-08-27T08:22:07.851+0000",
    "updatedAt": "2018-08-27T08:22:07.851+0000",
    "id": 1022,
    "referencia": "12345678R",
    "fecha": "2018-08-28",
    "huecoId": 1115,
    "huecoDuracion": 15,
    "estado": "LIBRE",
    "pacienteLocalizador": "",
    "medicoIdentifier": "MID:1000001:12345678R",
    "centroIdentifier": "1000001",
    "centroName": "Particulares",
    "huecoIdentifier": "1115",
    "medicoReference": "12345678R"
  },
  {
    "jsonClass": "Cita",
    "createdAt": "2018-08-27T08:22:07.891+0000",
    "updatedAt": "2018-08-27T08:22:07.891+0000",
    "id": 1023,
    "referencia": "12345678R",
    "fecha": "2018-08-28",
    "huecoId": 1130,
    "huecoDuracion": 15,
    "estado": "LIBRE",
    "pacienteLocalizador": "",
    "medicoIdentifier": "MID:1000001:12345678R",
    "centroIdentifier": "1000001",
    "centroName": "Particulares",
    "huecoIdentifier": "1130",
    "medicoReference": "12345678R"
  },
  {
    "jsonClass": "Cita",
    "createdAt": "2018-08-27T08:22:07.898+0000",
    "updatedAt": "2018-08-27T08:22:07.898+0000",
    "id": 1024,
    "referencia": "12345678R",
    "fecha": "2018-08-28",
    "huecoId": 1145,
    "huecoDuracion": 15,
    "estado": "LIBRE",
    "pacienteLocalizador": "",
    "medicoIdentifier": "MID:1000001:12345678R",
    "centroIdentifier": "1000001",
    "centroName": "Particulares",
    "huecoIdentifier": "1145",
    "medicoReference": "12345678R"
  }
]
