[
  {
    "jsonClass": "TemplateBuildingBlock",
    "nombre": "Cita de 5 minutos",
    "duracion": 5,
    "tipo": "TRANSPARENTE",
    "estado": "LIBRE"
  },
  {
    "jsonClass": "TemplateBuildingBlock",
    "nombre": "Cita de 10 minutos",
    "duracion": 10,
    "tipo": "TRANSPARENTE",
    "estado": "LIBRE"
  },
  {
    "jsonClass": "TemplateBuildingBlock",
    "nombre": "Cita de 15 minutos",
    "duracion": 15,
    "tipo": "TRANSPARENTE",
    "estado": "LIBRE"
  },
  {
    "jsonClass": "TemplateBuildingBlock",
    "nombre": "Cita de 20 minutos",
    "duracion": 20,
    "tipo": "TRANSPARENTE",
    "estado": "LIBRE"
  },
  {
    "jsonClass": "TemplateBuildingBlock",
    "nombre": "Cita de 30 minutos",
    "duracion": 30,
    "tipo": "TRANSPARENTE",
    "estado": "LIBRE"
  },
  {
    "jsonClass": "TemplateBuildingBlock",
    "nombre": "Cita de 45 minutos",
    "duracion": 45,
    "tipo": "TRANSPARENTE",
    "estado": "LIBRE"
  },
  {
    "jsonClass": "TemplateBuildingBlock",
    "nombre": "Cita de 60 minutos",
    "duracion": 60,
    "tipo": "TRANSPARENTE",
    "estado": "LIBRE"
  },
  {
    "jsonClass": "TemplateBuildingBlock",
    "nombre": "Descanso 5 minutos",
    "duracion": 5,
    "tipo": "TRANSPARENTE",
    "estado": "DESCANSO"
  }
]